<?xml version="1.0" encoding="UTF-8"?>
<svg width="13px" height="6px" viewBox="0 0 13 6" version="1.1" xmlns="http://www.w3.org/2000/svg" xmlns:xlink="http://www.w3.org/1999/xlink">
    <title>chevron-down-light</title>
    <g id="11---Paga-tu-Cuenta" stroke="none" stroke-width="1" fill="none" fill-rule="evenodd" opacity="0.5">
        <g id="Tricard---Paga-tu-Cuenta" transform="translate(-1247.000000, -542.000000)" fill="#F30000" fill-rule="nonzero">
            <g id="chevron-down-light" transform="translate(1253.500000, 545.000000) rotate(180.000000) translate(-1253.500000, -545.000000) translate(1247.000000, 542.000000)">
                <path d="M12.8976464,0.263157895 L12.6907596,0.0873065015 C12.5538063,-0.0291021672 12.33235,-0.0291021672 12.1953967,0.0873065015 L6.50163763,4.92941176 L0.804964659,0.0873065015 C0.668011396,-0.0291021672 0.446555055,-0.0291021672 0.309601792,0.0873065015 L0.102714947,0.263157895 C-0.0342383158,0.379566563 -0.0342383158,0.567801858 0.102714947,0.684210526 L6.2510423,5.9126935 C6.38799556,6.02910217 6.6094519,6.02910217 6.74640516,5.9126935 L12.8947325,0.684210526 C13.0345997,0.567801858 13.0345997,0.379566563 12.8976464,0.263157895 Z" id="Path"></path>
            </g>
        </g>
    </g>
</svg>