ID,Title,Content,Excerpt,Date,"Post Type",Permalink,"Image URL","Image Title","Image Caption","Image Description","Image Alt Text","Image Featured","Attachment URL","Regiones y comunas",_wp_page_template,Status,"Author ID","Author Username","Author Email","Author First Name","Author Last Name",Slug,Format,Template,Parent,"Parent Slug",Order,"Comment Status","Ping Status","Post Modified Date",Dirección,Estado,Horario
18,ANGOL,,,"2021-01-04 15:01:53",sucursal,http://trc.test/index.php/sucursal/angol/,,,,,,,,Angol,default,publish,1,"Juan Jorquera",juan+trc@aplicacionesweb.cl,,,angol,,default,0,0,0,open,open,"2021-01-04 15:01:53","LAUTARO 421","SOLO FINANCIERO","10:00 A 14:00 HORAS"
19,ANTOFAGASTA,,,"2021-01-04 15:01:53",sucursal,http://trc.test/index.php/sucursal/antofagasta/,,,,,,,,Antofagasta,default,publish,1,"Juan Jorquera",juan+trc@aplicacionesweb.cl,,,antofagasta,,default,0,0,0,open,open,"2021-01-04 15:01:53","PRAT 501","ABIERTO DE LUNES A DOMINGO","20:00 HORAS"
20,ARICA,,,"2021-01-04 15:01:53",sucursal,http://trc.test/index.php/sucursal/arica/,,,,,,,,Arica,default,publish,1,"Juan Jorquera",juan+trc@aplicacionesweb.cl,,,arica,,default,0,0,0,open,open,"2021-01-04 15:01:53","21 DE MAYO 364","ABIERTO DE LUNES A DOMINGO","20:00 HORAS"
21,BUIN,,,"2021-01-04 15:01:53",sucursal,http://trc.test/index.php/sucursal/buin/,,,,,,,,Buin,default,publish,1,"Juan Jorquera",juan+trc@aplicacionesweb.cl,,,buin,,default,0,0,0,open,open,"2021-01-04 15:01:53","JOSE MANUEL BALMACEDA 86","ABIERTO DE LUNES A VIERNES","20:00 HORAS"
22,CALAMA,,,"2021-01-04 15:01:53",sucursal,http://trc.test/index.php/sucursal/calama/,,,,,,,,Calama,default,publish,1,"Juan Jorquera",juan+trc@aplicacionesweb.cl,,,calama,,default,0,0,0,open,open,"2021-01-04 15:01:53","RAMIREZ 2001","ABIERTO DE LUNES A DOMINGO","20:00 HORAS"
23,ANCUD,,,"2021-01-04 15:01:53",sucursal,http://trc.test/index.php/sucursal/ancud/,,,,,,,,Ancud,default,publish,1,"Juan Jorquera",juan+trc@aplicacionesweb.cl,,,ancud,,default,0,0,0,open,open,"2021-01-04 15:01:53","PUDETO 221","ABIERTO DE LUNES A VIERNES","20:00 HORAS"
24,CASTRO,,,"2021-01-04 15:01:53",sucursal,http://trc.test/index.php/sucursal/castro/,,,,,,,,Castro,default,publish,1,"Juan Jorquera",juan+trc@aplicacionesweb.cl,,,castro,,default,0,0,0,open,open,"2021-01-04 15:01:53","SAN MARTIN 327","ABIERTO DE LUNES A DOMINGO","20:00 HORAS"
25,CAUQUENES,,,"2021-01-04 15:01:53",sucursal,http://trc.test/index.php/sucursal/cauquenes/,,,,,,,,Cauquenes,default,publish,1,"Juan Jorquera",juan+trc@aplicacionesweb.cl,,,cauquenes,,default,0,0,0,open,open,"2021-01-04 15:01:53","VICTORIA 590","ABIERTO DE LUNES A DOMINGO","20:00 HORAS"
26,"PLAZA OESTE",,,"2021-01-04 15:01:53",sucursal,http://trc.test/index.php/sucursal/plaza-oeste/,,,,,,,,Cerrillos,default,publish,1,"Juan Jorquera",juan+trc@aplicacionesweb.cl,,,plaza-oeste,,default,0,0,0,open,open,"2021-01-04 15:01:53","AMERICO VESPUCIO 1501, LC 120","ABIERTO DE LUNES A VIERNES","20:00 HORAS"
27,CHILLAN,,,"2021-01-04 15:01:53",sucursal,http://trc.test/index.php/sucursal/chillan/,,,,,,,,Chillan,default,publish,1,"Juan Jorquera",juan+trc@aplicacionesweb.cl,,,chillan,,default,0,0,0,open,open,"2021-01-04 15:01:53","5 DE ABRIL 812","ABIERTO DE LUNES A VIERNES","20:00 HORAS"
28,"CONNECT CHILLAN",,,"2021-01-04 15:01:53",sucursal,http://trc.test/index.php/sucursal/connect-chillan/,,,,,,,,Chillan,default,publish,1,"Juan Jorquera",juan+trc@aplicacionesweb.cl,,,connect-chillan,,default,0,0,0,open,open,"2021-01-04 15:01:53","5 DE ABRIL 657","ABIERTO DE LUNES A VIERNES","19:00 HORAS"
29,COLINA,,,"2021-01-04 15:01:53",sucursal,http://trc.test/index.php/sucursal/colina/,,,,,,,,Colina,default,publish,1,"Juan Jorquera",juan+trc@aplicacionesweb.cl,,,colina,,default,0,0,0,open,open,"2021-01-04 15:01:53","AV. GENERAL SAN MARTIN 50","ABIERTO DE LUNES A DOMINGO","19:00 HORAS"
30,"CONCEPCION 2",,,"2021-01-04 15:01:53",sucursal,http://trc.test/index.php/sucursal/concepcion-2/,,,,,,,,Concepcion,default,publish,1,"Juan Jorquera",juan+trc@aplicacionesweb.cl,,,concepcion-2,,default,0,0,0,open,open,"2021-01-04 15:01:53","BARROS ARANA 761","ABIERTO DE LUNES A VIERNES","18:30 HORAS"
31,"CONCEPCION BARROS",,,"2021-01-04 15:01:53",sucursal,http://trc.test/index.php/sucursal/concepcion-barros/,,,,,,,,Concepcion,default,publish,1,"Juan Jorquera",juan+trc@aplicacionesweb.cl,,,concepcion-barros,,default,0,0,0,open,open,"2021-01-04 15:01:53","BARROS ARANA 1055","ABIERTO DE LUNES A VIERNES","18:30 HORAS"
32,"CONNECT CONSTITUCION",,,"2021-01-04 15:01:53",sucursal,http://trc.test/index.php/sucursal/connect-constitucion/,,,,,,,,Constitucion,default,publish,1,"Juan Jorquera",juan+trc@aplicacionesweb.cl,,,connect-constitucion,,default,0,0,0,open,open,"2021-01-04 15:01:53","VIAL 380 B","ABIERTO DE LUNES A DOMINGO","19:00 HORAS"
33,COPIAPO,,,"2021-01-04 15:01:53",sucursal,http://trc.test/index.php/sucursal/copiapo/,,,,,,,,Copiapo,default,publish,1,"Juan Jorquera",juan+trc@aplicacionesweb.cl,,,copiapo,,default,0,0,0,open,open,"2021-01-04 15:01:53","LOS CARRERAS 501","ABIERTO DE LUNES A DOMINGO","20:00 HORAS"
34,COQUIMBO,,,"2021-01-04 15:01:53",sucursal,http://trc.test/index.php/sucursal/coquimbo/,,,,,,,,Coquimbo,default,publish,1,"Juan Jorquera",juan+trc@aplicacionesweb.cl,,,coquimbo,,default,0,0,0,open,open,"2021-01-04 15:01:53","ALDUNATE 1139","ABIERTO DE LUNES A DOMINGO","20:00 HORAS"
35,"VIVO PEÑUELAS",,,"2021-01-04 15:01:53",sucursal,http://trc.test/index.php/sucursal/vivo-penuelas/,,,,,,,,Coquimbo,default,publish,1,"Juan Jorquera",juan+trc@aplicacionesweb.cl,,,vivo-penuelas,,default,0,0,0,open,open,"2021-01-04 15:01:53","RUTA 5 NORTE, ESQUINA REG. ARICA","ABIERTO DE LUNES A DOMINGO","20:00 HORAS"
36,CORONEL,,,"2021-01-04 15:01:53",sucursal,http://trc.test/index.php/sucursal/coronel/,,,,,,,,Coronel,default,publish,1,"Juan Jorquera",juan+trc@aplicacionesweb.cl,,,coronel,,default,0,0,0,open,open,"2021-01-04 15:01:53","AV.CARLOS PRAT 0901,LC 184","ABIERTO DE LUNES A VIERNES","20:00 HORAS"
37,COYHAIQUE,,,"2021-01-04 15:01:53",sucursal,http://trc.test/index.php/sucursal/coyhaique/,,,,,,,,Coyhaique,default,publish,1,"Juan Jorquera",juan+trc@aplicacionesweb.cl,,,coyhaique,,default,0,0,0,open,open,"2021-01-04 15:01:53","ARTURO PRAT 533","ABIERTO DE LUNES A DOMINGO","20:00 HORAS"
38,CURICO,,,"2021-01-04 15:01:56",sucursal,http://trc.test/index.php/sucursal/curico/,,,,,,,,Curico,default,publish,1,"Juan Jorquera",juan+trc@aplicacionesweb.cl,,,curico,,default,0,0,0,open,open,"2021-01-04 15:01:56","YUNGAY 655","ABIERTO DE LUNES A VIERNES","20:00 HORAS"
39,"EL BOSQUE",,,"2021-01-04 15:01:56",sucursal,http://trc.test/index.php/sucursal/el-bosque/,,,,,,,,"El Bosque",default,publish,1,"Juan Jorquera",juan+trc@aplicacionesweb.cl,,,el-bosque,,default,0,0,0,open,open,"2021-01-04 15:01:56","GRAN AV.JM.CARRERA 10375 LC112","ABIERTO DE LUNES A VIERNES","20:00 HORAS"
40,ILLAPEL,,,"2021-01-04 15:01:56",sucursal,http://trc.test/index.php/sucursal/illapel/,,,,,,,,Illapel,default,publish,1,"Juan Jorquera",juan+trc@aplicacionesweb.cl,,,illapel,,default,0,0,0,open,open,"2021-01-04 15:01:56","IGNACIO SILVA 298","ABIERTO DE LUNES A DOMINGO","20:00 HORAS"
41,"MALL INDEPENDENCIA",,,"2021-01-04 15:01:56",sucursal,http://trc.test/index.php/sucursal/mall-independencia/,,,,,,,,Independencia,default,publish,1,"Juan Jorquera",juan+trc@aplicacionesweb.cl,,,mall-independencia,,default,0,0,0,open,open,"2021-01-04 15:01:56","AV.INDEPENDENCIA 565","ABIERTO DE LUNES A VIERNES","20:00 HORAS"
42,IQUIQUE,,,"2021-01-04 15:01:56",sucursal,http://trc.test/index.php/sucursal/iquique/,,,,,,,,Iquique,default,publish,1,"Juan Jorquera",juan+trc@aplicacionesweb.cl,,,iquique,,default,0,0,0,open,open,"2021-01-04 15:01:56","VIVAR 636","ABIERTO DE LUNES A DOMINGO","20:00 HORAS"
43,"LA CALERA 2",,,"2021-01-04 15:01:56",sucursal,http://trc.test/index.php/sucursal/la-calera-2/,,,,,,,,"La Calera",default,publish,1,"Juan Jorquera",juan+trc@aplicacionesweb.cl,,,la-calera-2,,default,0,0,0,open,open,"2021-01-04 15:01:56","ALDUNATE 250","ABIERTO DE LUNES A DOMINGO","20:00 HORAS"
44,"CONNECT LA CALERA",,,"2021-01-04 15:01:56",sucursal,http://trc.test/index.php/sucursal/connect-la-calera/,,,,,,,,"La Calera",default,publish,1,"Juan Jorquera",juan+trc@aplicacionesweb.cl,,,connect-la-calera,,default,0,0,0,open,open,"2021-01-04 15:01:56","CARRERA 530 B","ABIERTO DE LUNES A DOMINGO","19:00 HORAS"
45,"FLORIDA CENTER",,,"2021-01-04 15:01:56",sucursal,http://trc.test/index.php/sucursal/florida-center/,,,,,,,,"La Florida",default,publish,1,"Juan Jorquera",juan+trc@aplicacionesweb.cl,,,florida-center,,default,0,0,0,open,open,"2021-01-04 15:01:56","AV.VIC. MACKENNA 6100 LC 3049","ABIERTO DE LUNES A VIERNES","20:00 HORAS"
46,"MALL VIVO LA FLORIDA",,,"2021-01-04 15:01:56",sucursal,http://trc.test/index.php/sucursal/mall-vivo-la-florida/,,,,,,,,"La Florida",default,publish,1,"Juan Jorquera",juan+trc@aplicacionesweb.cl,,,mall-vivo-la-florida,,default,0,0,0,open,open,"2021-01-04 15:01:56","AV.LA FLORIDA 8988 LC 1276","ABIERTO DE LUNES A VIERNES","20:00 HORAS"
47,"PLAZA VESPUCIO",,,"2021-01-04 15:01:56",sucursal,http://trc.test/index.php/sucursal/plaza-vespucio/,,,,,,,,"La Florida",default,publish,1,"Juan Jorquera",juan+trc@aplicacionesweb.cl,,,plaza-vespucio,,default,0,0,0,open,open,"2021-01-04 15:01:56","AVDA.VICUÑA MACKENNA 7110","ABIERTO DE LUNES A VIERNES","20:00 HORAS"
48,"LA LIGUA",,,"2021-01-04 15:01:56",sucursal,http://trc.test/index.php/sucursal/la-ligua/,,,,,,,,"La Ligua",default,publish,1,"Juan Jorquera",juan+trc@aplicacionesweb.cl,,,la-ligua,,default,0,0,0,open,open,"2021-01-04 15:01:56","ORTIZ DE ROSAS 596","ABIERTO DE LUNES A DOMINGO","20:00 HORAS"
49,"CONNECT LA LIGUA",,,"2021-01-04 15:01:56",sucursal,http://trc.test/index.php/sucursal/connect-la-ligua/,,,,,,,,"La Ligua",default,publish,1,"Juan Jorquera",juan+trc@aplicacionesweb.cl,,,connect-la-ligua,,default,0,0,0,open,open,"2021-01-04 15:01:56","ORTIZ DE ROSAS 612 LOCAL 2","ABIERTO DE LUNES A DOMINGO","19:00 HORAS"
50,"LA SERENA",,,"2021-01-04 15:01:56",sucursal,http://trc.test/index.php/sucursal/la-serena/,,,,,,,,"La Serena",default,publish,1,"Juan Jorquera",juan+trc@aplicacionesweb.cl,,,la-serena,,default,0,0,0,open,open,"2021-01-04 15:01:56","CIENFUEGOS 458","ABIERTO DE LUNES A DOMINGO","20:00 HORAS"
51,"MALL LA SERENA",,,"2021-01-04 15:01:56",sucursal,http://trc.test/index.php/sucursal/mall-la-serena/,,,,,,,,"La Serena",default,publish,1,"Juan Jorquera",juan+trc@aplicacionesweb.cl,,,mall-la-serena,,default,0,0,0,open,open,"2021-01-04 15:01:56","AV. BALMACEDA 2885, LC 193","ABIERTO DE LUNES A DOMINGO","20:00 HORAS"
52,"SERENA HOTEL",,,"2021-01-04 15:01:56",sucursal,http://trc.test/index.php/sucursal/serena-hotel/,,,,,,,,"La Serena",default,publish,1,"Juan Jorquera",juan+trc@aplicacionesweb.cl,,,serena-hotel,,default,0,0,0,open,open,"2021-01-04 15:01:56","CORDOVEZ 618","ABIERTO DE LUNES A DOMINGO","20:00 HORAS"
53,"CONNECT LA SERENA",,,"2021-01-04 15:01:56",sucursal,http://trc.test/index.php/sucursal/connect-la-serena/,,,,,,,,"La Serena",default,publish,1,"Juan Jorquera",juan+trc@aplicacionesweb.cl,,,connect-la-serena,,default,0,0,0,open,open,"2021-01-04 15:01:56","CORDOVEZ 622","ABIERTO DE LUNES A DOMINGO","19:00 HORAS"
54,"LA UNION",,,"2021-01-04 15:01:56",sucursal,http://trc.test/index.php/sucursal/la-union/,,,,,,,,"La Union",default,publish,1,"Juan Jorquera",juan+trc@aplicacionesweb.cl,,,la-union,,default,0,0,0,open,open,"2021-01-04 15:01:56","MANUEL MONTT 308","SOLO ATENCIÓN FINANCIERA","14:00 HORAS"
55,APUMANQUE,,,"2021-01-04 15:01:56",sucursal,http://trc.test/index.php/sucursal/apumanque/,,,,,,,,"Las Condes",default,publish,1,"Juan Jorquera",juan+trc@aplicacionesweb.cl,,,apumanque,,default,0,0,0,open,open,"2021-01-04 15:01:56","AV.MANQUEHUE SUR 31, LOCAL 149","ABIERTO DE LUNES A VIERNES","20:00 HORAS"
56,"APUMANQUE ANEXO2",,,"2021-01-04 15:01:56",sucursal,http://trc.test/index.php/sucursal/apumanque-anexo2/,,,,,,,,"Las Condes",default,publish,1,"Juan Jorquera",juan+trc@aplicacionesweb.cl,,,apumanque-anexo2,,default,0,0,0,open,open,"2021-01-04 15:01:56","AV. MANQUEHUE SUR 31","ABIERTO DE LUNES A VIERNES","20:00 HORAS"
57,"LOS DOMINICOS",,,"2021-01-04 15:01:56",sucursal,http://trc.test/index.php/sucursal/los-dominicos/,,,,,,,,"Las Condes",default,publish,1,"Juan Jorquera",juan+trc@aplicacionesweb.cl,,,los-dominicos,,default,0,0,0,open,open,"2021-01-04 15:01:56","PADRE HURTADO SUR 875, LC 112","ABIERTO DE LUNES A VIERNES","20:00 HORAS"
58,LINARES,,,"2021-01-04 15:01:58",sucursal,http://trc.test/index.php/sucursal/linares/,,,,,,,,Linares,default,publish,1,"Juan Jorquera",juan+trc@aplicacionesweb.cl,,,linares,,default,0,0,0,open,open,"2021-01-04 15:01:58","INDEPENDENCIA 437","ABIERTO DE LUNES A DOMINGO","20:00 HORAS"
59,"LINARES 2",,,"2021-01-04 15:01:58",sucursal,http://trc.test/index.php/sucursal/linares-2/,,,,,,,,Linares,default,publish,1,"Juan Jorquera",juan+trc@aplicacionesweb.cl,,,linares-2,,default,0,0,0,open,open,"2021-01-04 15:01:58","INDEPENDENCIA 699","ABIERTO DE LUNES A DOMINGO","20:00 HORAS"
60,"LOS ANDES",,,"2021-01-04 15:01:58",sucursal,http://trc.test/index.php/sucursal/los-andes/,,,,,,,,"Los Andes",default,publish,1,"Juan Jorquera",juan+trc@aplicacionesweb.cl,,,los-andes,,default,0,0,0,open,open,"2021-01-04 15:01:58","ESMERALDA 231","ABIERTO DE LUNES A DOMINGO","20:00 HORAS"
61,"CONNECT LOS ANDES",,,"2021-01-04 15:01:58",sucursal,http://trc.test/index.php/sucursal/connect-los-andes/,,,,,,,,"Los Andes",default,publish,1,"Juan Jorquera",juan+trc@aplicacionesweb.cl,,,connect-los-andes,,default,0,0,0,open,open,"2021-01-04 15:01:58","OHIGGINS 270-C","ABIERTO DE LUNES A DOMINGO","19:00 HORAS"
62,"LOS ANGELES",,,"2021-01-04 15:01:58",sucursal,http://trc.test/index.php/sucursal/los-angeles/,,,,,,,,"Los Angeles",default,publish,1,"Juan Jorquera",juan+trc@aplicacionesweb.cl,,,los-angeles,,default,0,0,0,open,open,"2021-01-04 15:01:58","COLON 357","SOLO ATENCIÓN FINANCIERA","10:00 A 14:00 HORAS"
63,"LOS ANGELES 2",,,"2021-01-04 15:01:58",sucursal,http://trc.test/index.php/sucursal/los-angeles-2/,,,,,,,,"Los Angeles",default,publish,1,"Juan Jorquera",juan+trc@aplicacionesweb.cl,,,los-angeles-2,,default,0,0,0,open,open,"2021-01-04 15:01:58","COLON 449 - 451","SOLO ATENCIÓN FINANCIERA","10:00 A 14:00 HORAS"
64,"CONNECT LOS ANGELES",,,"2021-01-04 15:01:58",sucursal,http://trc.test/index.php/sucursal/connect-los-angeles/,,,,,,,,"Los Angeles",default,publish,1,"Juan Jorquera",juan+trc@aplicacionesweb.cl,,,connect-los-angeles,,default,0,0,0,open,open,"2021-01-04 15:01:58","COLO COLO 501","SOLO ATENCIÓN FINANCIERA","10:00 A 14:00 HORAS"
65,"MALL QUILIN",,,"2021-01-04 15:01:58",sucursal,http://trc.test/index.php/sucursal/mall-quilin/,,,,,,,,Macul,default,publish,1,"Juan Jorquera",juan+trc@aplicacionesweb.cl,,,mall-quilin,,default,0,0,0,open,open,"2021-01-04 15:01:58","MAR TIRRENO 3349 LC 1105","ABIERTO DE LUNES A VIERNES","20:00 HORAS"
66,"MAIPU 2",,,"2021-01-04 15:01:58",sucursal,http://trc.test/index.php/sucursal/maipu-2/,,,,,,,,Maipu,default,publish,1,"Juan Jorquera",juan+trc@aplicacionesweb.cl,,,maipu-2,,default,0,0,0,open,open,"2021-01-04 15:01:58","PAJARITOS 1948 LOCAL 1","ABIERTO DE LUNES A VIERNES","20:00 HORAS"
67,"VIVO MAIPU",,,"2021-01-04 15:01:58",sucursal,http://trc.test/index.php/sucursal/vivo-maipu/,,,,,,,,Maipu,default,publish,1,"Juan Jorquera",juan+trc@aplicacionesweb.cl,,,vivo-maipu,,default,0,0,0,open,open,"2021-01-04 15:01:58","LO ESPEJO 943, LC 1704","ABIERTO DE LUNES A VIERNES","20:00 HORAS"
68,MELIPILLA,,,"2021-01-04 15:01:58",sucursal,http://trc.test/index.php/sucursal/melipilla/,,,,,,,,Melipilla,default,publish,1,"Juan Jorquera",juan+trc@aplicacionesweb.cl,,,melipilla,,default,0,0,0,open,open,"2021-01-04 15:01:58","SERRANO 395","ABIERTO DE LUNES A VIERNES","19:00 HORAS"
69,IRARRAZAVAL,,,"2021-01-04 15:01:58",sucursal,http://trc.test/index.php/sucursal/irarrazaval/,,,,,,,,Ñuñoa,default,publish,1,"Juan Jorquera",juan+trc@aplicacionesweb.cl,,,irarrazaval,,default,0,0,0,open,open,"2021-01-04 15:01:58","AV. IRARRAZAVAL 2401, LC 11","ABIERTO DE LUNES A VIERNES","20:00 HORAS"
70,OSORNO,,,"2021-01-04 15:01:58",sucursal,http://trc.test/index.php/sucursal/osorno/,,,,,,,,Osorno,default,publish,1,"Juan Jorquera",juan+trc@aplicacionesweb.cl,,,osorno,,default,0,0,0,open,open,"2021-01-04 15:01:58","ELEUTERIO RAMIREZ 968","ABIERTO DE LUNES A VIERNES","20:00 HORAS"
71,"MALL OVALLE",,,"2021-01-04 15:01:58",sucursal,http://trc.test/index.php/sucursal/mall-ovalle/,,,,,,,,Ovalle,default,publish,1,"Juan Jorquera",juan+trc@aplicacionesweb.cl,,,mall-ovalle,,default,0,0,0,open,open,"2021-01-04 15:01:58","BENAVENTE 1075, LOCAL 1510","ABIERTO DE LUNES A VIERNES","20:00 HORAS"
72,OVALLE,,,"2021-01-04 15:01:58",sucursal,http://trc.test/index.php/sucursal/ovalle/,,,,,,,,Ovalle,default,publish,1,"Juan Jorquera",juan+trc@aplicacionesweb.cl,,,ovalle,,default,0,0,0,open,open,"2021-01-04 15:01:58","VICUNA MACKENNA 98","ABIERTO DE LUNES A VIERNES","20:00 HORAS"
73,"OVALLE 2",,,"2021-01-04 15:01:58",sucursal,http://trc.test/index.php/sucursal/ovalle-2/,,,,,,,,Ovalle,default,publish,1,"Juan Jorquera",juan+trc@aplicacionesweb.cl,,,ovalle-2,,default,0,0,0,open,open,"2021-01-04 15:01:58","AV.VICUNA MACKENNA 40","ABIERTO DE LUNES A VIERNES","20:00 HORAS"
74,"CONNECT OVALLE",,,"2021-01-04 15:01:58",sucursal,http://trc.test/index.php/sucursal/connect-ovalle/,,,,,,,,Ovalle,default,publish,1,"Juan Jorquera",juan+trc@aplicacionesweb.cl,,,connect-ovalle,,default,0,0,0,open,open,"2021-01-04 15:01:58","COQUIMBO 354 D","ABIERTO DE LUNES A VIERNES","19:00 HORAS"
75,PARRAL,,,"2021-01-04 15:01:58",sucursal,http://trc.test/index.php/sucursal/parral/,,,,,,,,Parral,default,publish,1,"Juan Jorquera",juan+trc@aplicacionesweb.cl,,,parral,,default,0,0,0,open,open,"2021-01-04 15:01:58","ANIBAL PINTO 446","ABIERTO DE LUNES A DOMINGO","20:00 HORAS"
76,"CONNECT PARRAL",,,"2021-01-04 15:01:58",sucursal,http://trc.test/index.php/sucursal/connect-parral/,,,,,,,,Parral,default,publish,1,"Juan Jorquera",juan+trc@aplicacionesweb.cl,,,connect-parral,,default,0,0,0,open,open,"2021-01-04 15:01:58","ANIBAL PINTO 507","ABIERTO DE LUNES A DOMINGO","19:00 HORAS"
77,PEÑAFLOR,,,"2021-01-04 15:01:58",sucursal,http://trc.test/index.php/sucursal/penaflor/,,,,,,,,Peñaflor,default,publish,1,"Juan Jorquera",juan+trc@aplicacionesweb.cl,,,penaflor,,default,0,0,0,open,open,"2021-01-04 15:01:58","21 DE MAYO 4430","ABIERTO DE LUNES A VIERNES","20:00 HORAS"
78,"PUENTE ALTO",,,"2021-01-04 15:02:03",sucursal,http://trc.test/index.php/sucursal/puente-alto/,,,,,,,,"Puente Alto",default,publish,1,"Juan Jorquera",juan+trc@aplicacionesweb.cl,,,puente-alto,,default,0,0,0,open,open,"2021-01-04 15:02:03","CONCHA Y TORO 110","ABIERTO DE LUNES A VIERNES","20:00 HORAS"
79,"MALL PUERTO MONTT",,,"2021-01-04 15:02:03",sucursal,http://trc.test/index.php/sucursal/mall-puerto-montt/,,,,,,,,"Puerto Montt",default,publish,1,"Juan Jorquera",juan+trc@aplicacionesweb.cl,,,mall-puerto-montt,,default,0,0,0,open,open,"2021-01-04 15:02:03","URMENETA 580 PISO 4","ABIERTO DE LUNES A VIERNES","20:00 HORAS"
80,"PUERTO MONTT",,,"2021-01-04 15:02:03",sucursal,http://trc.test/index.php/sucursal/puerto-montt/,,,,,,,,"Puerto Montt",default,publish,1,"Juan Jorquera",juan+trc@aplicacionesweb.cl,,,puerto-montt,,default,0,0,0,open,open,"2021-01-04 15:02:03","AVENIDA VARAS 536","ABIERTO DE LUNES A VIERNES","20:00 HORAS"
81,"PUERTO VARAS",,,"2021-01-04 15:02:03",sucursal,http://trc.test/index.php/sucursal/puerto-varas/,,,,,,,,"Puerto Varas",default,publish,1,"Juan Jorquera",juan+trc@aplicacionesweb.cl,,,puerto-varas,,default,0,0,0,open,open,"2021-01-04 15:02:03","SAN PEDRO 534","ABIERTO DE LUNES A VIERNES","18:30 HORAS"
82,"PUNTA ARENAS",,,"2021-01-04 15:02:03",sucursal,http://trc.test/index.php/sucursal/punta-arenas/,,,,,,,,"Punta Arenas",default,publish,1,"Juan Jorquera",juan+trc@aplicacionesweb.cl,,,punta-arenas,,default,0,0,0,open,open,"2021-01-04 15:02:03","GOBERNADOR CARLOS BORIES 844","ABIERTO DE LUNES A VIERNES","20:00 HORAS"
83,"PUNTA ARENAS2",,,"2021-01-04 15:02:03",sucursal,http://trc.test/index.php/sucursal/punta-arenas2/,,,,,,,,"Punta Arenas",default,publish,1,"Juan Jorquera",juan+trc@aplicacionesweb.cl,,,punta-arenas2,,default,0,0,0,open,open,"2021-01-04 15:02:03","BORIES 884","ABIERTO DE LUNES A VIERNES","20:00 HORAS"
84,"EASTON CENTER",,,"2021-01-04 15:02:03",sucursal,http://trc.test/index.php/sucursal/easton-center/,,,,,,,,Quilicura,default,publish,1,"Juan Jorquera",juan+trc@aplicacionesweb.cl,,,easton-center,,default,0,0,0,open,open,"2021-01-04 15:02:03","AV.FREI MONTALVA 9709 L3900 A","ABIERTO DE LUNES A VIERNES","20:00 HORAS"
85,"MALL QUILLOTA",,,"2021-01-04 15:02:03",sucursal,http://trc.test/index.php/sucursal/mall-quillota/,,,,,,,,Quillota,default,publish,1,"Juan Jorquera",juan+trc@aplicacionesweb.cl,,,mall-quillota,,default,0,0,0,open,open,"2021-01-04 15:02:03","AV. RAMON FREIRE N° 1687","ABIERTO DE LUNES A DOMINGO","20:00 HORAS"
86,QUILLOTA,,,"2021-01-04 15:02:03",sucursal,http://trc.test/index.php/sucursal/quillota/,,,,,,,,Quillota,default,publish,1,"Juan Jorquera",juan+trc@aplicacionesweb.cl,,,quillota,,default,0,0,0,open,open,"2021-01-04 15:02:03","PRAT 125","ABIERTO DE LUNES A DOMINGO","20:00 HORAS"
87,"CONNECT QUILLOTA",,,"2021-01-04 15:02:03",sucursal,http://trc.test/index.php/sucursal/connect-quillota/,,,,,,,,Quillota,default,publish,1,"Juan Jorquera",juan+trc@aplicacionesweb.cl,,,connect-quillota,,default,0,0,0,open,open,"2021-01-04 15:02:03","PRAT 147-A","ABIERTO DE LUNES A DOMINGO","19:00 HORAS"
88,"EL BELLOTO",,,"2021-01-04 15:02:03",sucursal,http://trc.test/index.php/sucursal/el-belloto/,,,,,,,,Quilpue,default,publish,1,"Juan Jorquera",juan+trc@aplicacionesweb.cl,,,el-belloto,,default,0,0,0,open,open,"2021-01-04 15:02:03","RAMON FREIRE 2414, LC 1075","ABIERTO DE LUNES A DOMINGO","20:00 HORAS"
89,QUILPUE,,,"2021-01-04 15:02:03",sucursal,http://trc.test/index.php/sucursal/quilpue/,,,,,,,,Quilpue,default,publish,1,"Juan Jorquera",juan+trc@aplicacionesweb.cl,,,quilpue,,default,0,0,0,open,open,"2021-01-04 15:02:03","DIEGO PORTALES 822","ABIERTO DE LUNES A DOMINGO","20:00 HORAS"
90,"MALL RANCAGUA",,,"2021-01-04 15:02:03",sucursal,http://trc.test/index.php/sucursal/mall-rancagua/,,,,,,,,Rancagua,default,publish,1,"Juan Jorquera",juan+trc@aplicacionesweb.cl,,,mall-rancagua,,default,0,0,0,open,open,"2021-01-04 15:02:03","AV. EINSTEIN 287, LC 150","ABIERTO DE LUNES A DOMINGO","20:00 HORAS"
91,RANCAGUA,,,"2021-01-04 15:02:03",sucursal,http://trc.test/index.php/sucursal/rancagua/,,,,,,,,Rancagua,default,publish,1,"Juan Jorquera",juan+trc@aplicacionesweb.cl,,,rancagua,,default,0,0,0,open,open,"2021-01-04 15:02:03","INDEPENDENCIA 539","ABIERTO DE LUNES A DOMINGO","20:00 HORAS"
92,"CONNECT RANCAGUA",,,"2021-01-04 15:02:03",sucursal,http://trc.test/index.php/sucursal/connect-rancagua/,,,,,,,,Rancagua,default,publish,1,"Juan Jorquera",juan+trc@aplicacionesweb.cl,,,connect-rancagua,,default,0,0,0,open,open,"2021-01-04 15:02:03","SAN MARTIN 425","ABIERTO DE LUNES A DOMINGO","19:00 HORAS"
93,PATRONATO,,,"2021-01-04 15:02:03",sucursal,http://trc.test/index.php/sucursal/patronato/,,,,,,,,Recoleta,default,publish,1,"Juan Jorquera",juan+trc@aplicacionesweb.cl,,,patronato,,default,0,0,0,open,open,"2021-01-04 15:02:03","PATRONATO 318","ABIERTO DE LUNES A VIERNES","20:00 HORAS"
94,RENGO,,,"2021-01-04 15:02:03",sucursal,http://trc.test/index.php/sucursal/rengo/,,,,,,,,Rengo,default,publish,1,"Juan Jorquera",juan+trc@aplicacionesweb.cl,,,rengo,,default,0,0,0,open,open,"2021-01-04 15:02:03","PRAT 220","ABIERTO DE LUNES A DOMINGO","20:00 HORAS"
95,"CONNECT RENGO",,,"2021-01-04 15:02:03",sucursal,http://trc.test/index.php/sucursal/connect-rengo/,,,,,,,,Rengo,default,publish,1,"Juan Jorquera",juan+trc@aplicacionesweb.cl,,,connect-rengo,,default,0,0,0,open,open,"2021-01-04 15:02:03","PRAT 211","ABIERTO DE LUNES A DOMINGO","19:00 HORAS"
96,"SAN ANTONIO",,,"2021-01-04 15:02:03",sucursal,http://trc.test/index.php/sucursal/san-antonio/,,,,,,,,"San Antonio",default,publish,1,"Juan Jorquera",juan+trc@aplicacionesweb.cl,,,san-antonio,,default,0,0,0,open,open,"2021-01-04 15:02:03","CENTENARIO 233","ABIERTO DE LUNES A DOMINGO","20:00 HORAS"
97,"SAN BERNARDO",,,"2021-01-04 15:02:03",sucursal,http://trc.test/index.php/sucursal/san-bernardo/,,,,,,,,"San Bernardo",default,publish,1,"Juan Jorquera",juan+trc@aplicacionesweb.cl,,,san-bernardo,,default,0,0,0,open,open,"2021-01-04 15:02:03","EYZAGUIRRE 609","ABIERTO DE LUNES A VIERNES","20:00 HORAS"
98,"SAN CARLOS",,,"2021-01-04 15:02:05",sucursal,http://trc.test/index.php/sucursal/san-carlos/,,,,,,,,"San Carlos",default,publish,1,"Juan Jorquera",juan+trc@aplicacionesweb.cl,,,san-carlos,,default,0,0,0,open,open,"2021-01-04 15:02:05","AV. INDEPENDENCIA 699","ABIERTO DE LUNES A DOMINGO","20:00 HORAS"
99,"CONNECT SAN CARLOS",,,"2021-01-04 15:02:05",sucursal,http://trc.test/index.php/sucursal/connect-san-carlos/,,,,,,,,"San Carlos",default,publish,1,"Juan Jorquera",juan+trc@aplicacionesweb.cl,,,connect-san-carlos,,default,0,0,0,open,open,"2021-01-04 15:02:05","SERRANO 436","ABIERTO DE LUNES A DOMINGO","19:00 HORAS"
100,"SAN FELIPE",,,"2021-01-04 15:02:05",sucursal,http://trc.test/index.php/sucursal/san-felipe/,,,,,,,,"San Felipe",default,publish,1,"Juan Jorquera",juan+trc@aplicacionesweb.cl,,,san-felipe,,default,0,0,0,open,open,"2021-01-04 15:02:05","PRAT 93","ABIERTO DE LUNES A DOMINGO","20:00 HORAS"
101,"CONNECT SAN FELIPE",,,"2021-01-04 15:02:05",sucursal,http://trc.test/index.php/sucursal/connect-san-felipe/,,,,,,,,"San Felipe",default,publish,1,"Juan Jorquera",juan+trc@aplicacionesweb.cl,,,connect-san-felipe,,default,0,0,0,open,open,"2021-01-04 15:02:05","PORTUS 266","ABIERTO DE LUNES A DOMINGO","19:00 HORAS"
102,"SAN FERNANDO 2",,,"2021-01-04 15:02:05",sucursal,http://trc.test/index.php/sucursal/san-fernando-2/,,,,,,,,"San Fernando",default,publish,1,"Juan Jorquera",juan+trc@aplicacionesweb.cl,,,san-fernando-2,,default,0,0,0,open,open,"2021-01-04 15:02:05","AV.BERNARDO OHIGGINS 646","ABIERTO DE LUNES A DOMINGO","20:00 HORAS"
103,"CONNECT SAN FERNADO",,,"2021-01-04 15:02:05",sucursal,http://trc.test/index.php/sucursal/connect-san-fernado/,,,,,,,,"San Fernando",default,publish,1,"Juan Jorquera",juan+trc@aplicacionesweb.cl,,,connect-san-fernado,,default,0,0,0,open,open,"2021-01-04 15:02:05","AV O'HIGGINS 720","ABIERTO DE LUNES A DOMINGO","20:00 HORAS"
104,"SAN JAVIER",,,"2021-01-04 15:02:05",sucursal,http://trc.test/index.php/sucursal/san-javier/,,,,,,,,"San Javier",default,publish,1,"Juan Jorquera",juan+trc@aplicacionesweb.cl,,,san-javier,,default,0,0,0,open,open,"2021-01-04 15:02:05","ARTURO PRAT 2370","ABIERTO DE LUNES A VIERNES","20:00 HORAS"
105,"GRAN AVENIDA",,,"2021-01-04 15:02:05",sucursal,http://trc.test/index.php/sucursal/gran-avenida/,,,,,,,,"San Miguel",default,publish,1,"Juan Jorquera",juan+trc@aplicacionesweb.cl,,,gran-avenida,,default,0,0,0,open,open,"2021-01-04 15:02:05","GRAN AVENIDA","ABIERTO DE LUNES A VIERNES","20:30 HORAS"
106,"INTERMODAL CISTERNA",,,"2021-01-04 15:02:05",sucursal,http://trc.test/index.php/sucursal/intermodal-cisterna/,,,,,,,,"San Miguel",default,publish,1,"Juan Jorquera",juan+trc@aplicacionesweb.cl,,,intermodal-cisterna,,default,0,0,0,open,open,"2021-01-04 15:02:05","AMERICO VESPUCIO 75 LOCAL 33","ABIERTO DE LUNES A VIERNES","20:00 HORAS"
107,"CONNECT LA CISTERNA",,,"2021-01-04 15:02:05",sucursal,http://trc.test/index.php/sucursal/connect-la-cisterna/,,,,,,,,"San Miguel",default,publish,1,"Juan Jorquera",juan+trc@aplicacionesweb.cl,,,connect-la-cisterna,,default,0,0,0,open,open,"2021-01-04 15:02:05","AV VESPUCIO 033 LC 11-B","ABIERTO DE LUNES A VIERNES","19:00 HORAS"
108,"CONNECT SAN VICENTE",,,"2021-01-04 15:02:05",sucursal,http://trc.test/index.php/sucursal/connect-san-vicente/,,,,,,,,"San Vicente",default,publish,1,"Juan Jorquera",juan+trc@aplicacionesweb.cl,,,connect-san-vicente,,default,0,0,0,open,open,"2021-01-04 15:02:05","GENARO LISBOA 280","ABIERTO DE LUNES A DOMINGO","19:00 HORAS"
109,"SAN VICENTE",,,"2021-01-04 15:02:05",sucursal,http://trc.test/index.php/sucursal/san-vicente/,,,,,,,,"San Vicente",default,publish,1,"Juan Jorquera",juan+trc@aplicacionesweb.cl,,,san-vicente,,default,0,0,0,open,open,"2021-01-04 15:02:05","GERMAN RIESCO 780","ABIERTO DE LUNES A DOMINGO","20:00 HORAS"
110,"SANTA CRUZ",,,"2021-01-04 15:02:05",sucursal,http://trc.test/index.php/sucursal/santa-cruz/,,,,,,,,"Santa Cruz",default,publish,1,"Juan Jorquera",juan+trc@aplicacionesweb.cl,,,santa-cruz,,default,0,0,0,open,open,"2021-01-04 15:02:05","RAFAEL CASANOVA 283","ABIERTO DE LUNES A DOMINGO","20:00 HORAS"
111,"CONNECT SANTA CRUZ",,,"2021-01-04 15:02:05",sucursal,http://trc.test/index.php/sucursal/connect-santa-cruz/,,,,,,,,"Santa Cruz",default,publish,1,"Juan Jorquera",juan+trc@aplicacionesweb.cl,,,connect-santa-cruz,,default,0,0,0,open,open,"2021-01-04 15:02:05","RAFAEL CASANOVA 38D","ABIERTO DE LUNES A DOMINGO","19:00 HORAS"
112,AHUMADA,,,"2021-01-04 15:02:05",sucursal,http://trc.test/index.php/sucursal/ahumada/,,,,,,,,Santiago,default,publish,1,"Juan Jorquera",juan+trc@aplicacionesweb.cl,,,ahumada,,default,0,0,0,open,open,"2021-01-04 15:02:05","AHUMADA 346","ABIERTO DE LUNES A VIERNES","20:00 HORAS"
113,MONJITAS,,,"2021-01-04 15:02:05",sucursal,http://trc.test/index.php/sucursal/monjitas/,,,,,,,,Santiago,default,publish,1,"Juan Jorquera",juan+trc@aplicacionesweb.cl,,,monjitas,,default,0,0,0,open,open,"2021-01-04 15:02:05","21 DE MAYO 505","ABIERTO DE LUNES A VIERNES","20:00 HORAS"
114,"PASEO PUENTE",,,"2021-01-04 15:02:05",sucursal,http://trc.test/index.php/sucursal/paseo-puente/,,,,,,,,Santiago,default,publish,1,"Juan Jorquera",juan+trc@aplicacionesweb.cl,,,paseo-puente,,default,0,0,0,open,open,"2021-01-04 15:02:05","PASEO PUENTE 633","ABIERTO DE LUNES A VIERNES","20:00 HORAS"
115,"CONNECT GALERIA IMPERIO",,,"2021-01-04 15:02:05",sucursal,http://trc.test/index.php/sucursal/connect-galeria-imperio/,,,,,,,,Santiago,default,publish,1,"Juan Jorquera",juan+trc@aplicacionesweb.cl,,,connect-galeria-imperio,,default,0,0,0,open,open,"2021-01-04 15:02:05","PJE AGUSTIN EDWARDS 1021 L.42","ABIERTO DE LUNES A VIERNES","19:00 HORAS"
116,"TORRE ALAMEDA",,,"2021-01-04 15:02:05",sucursal,http://trc.test/index.php/sucursal/torre-alameda/,,,,,,,,Santiago,default,publish,1,"Juan Jorquera",juan+trc@aplicacionesweb.cl,,,torre-alameda,,default,0,0,0,open,open,"2021-01-04 15:02:05","ALAMEDA 781","ABIERTO DE LUNES A VIERNES","20:00 HORAS"
117,"CONNECT TALAGANTE",,,"2021-01-04 15:02:05",sucursal,http://trc.test/index.php/sucursal/connect-talagante/,,,,,,,,Talagante,default,publish,1,"Juan Jorquera",juan+trc@aplicacionesweb.cl,,,connect-talagante,,default,0,0,0,open,open,"2021-01-04 15:02:05","O'HIGGINS 1063 LOCAL 10","ABIERTO DE LUNES A DOMINGO","19:00 HORAS"
118,TALAGANTE,,,"2021-01-04 15:02:06",sucursal,http://trc.test/index.php/sucursal/talagante/,,,,,,,,Talagante,default,publish,1,"Juan Jorquera",juan+trc@aplicacionesweb.cl,,,talagante,,default,0,0,0,open,open,"2021-01-04 15:02:06","BERNARDO O HIGGINS 1038","ABIERTO DE LUNES A VIERNES","20:00 HORAS"
119,"CONNECT TALCA",,,"2021-01-04 15:02:06",sucursal,http://trc.test/index.php/sucursal/connect-talca/,,,,,,,,Talca,default,publish,1,"Juan Jorquera",juan+trc@aplicacionesweb.cl,,,connect-talca,,default,0,0,0,open,open,"2021-01-04 15:02:06","7 ORIENTE 1120","ABIERTO DE LUNES A VIERNES","19:00 HORAS"
120,TALCA,,,"2021-01-04 15:02:06",sucursal,http://trc.test/index.php/sucursal/talca/,,,,,,,,Talca,default,publish,1,"Juan Jorquera",juan+trc@aplicacionesweb.cl,,,talca,,default,0,0,0,open,open,"2021-01-04 15:02:06","1 SUR 1449","ABIERTO DE LUNES A VIERNES","20:00 HORAS"
121,TALCAHUANO,,,"2021-01-04 15:02:06",sucursal,http://trc.test/index.php/sucursal/talcahuano/,,,,,,,,Talcahuano,default,publish,1,"Juan Jorquera",juan+trc@aplicacionesweb.cl,,,talcahuano,,default,0,0,0,open,open,"2021-01-04 15:02:06","AV.COLON 102","ABIERTO DE LUNES A VIERNES","19:00 HORAS"
122,"MALL VIVO TEMUCO",,,"2021-01-04 15:02:06",sucursal,http://trc.test/index.php/sucursal/mall-vivo-temuco/,,,,,,,,Temuco,default,publish,1,"Juan Jorquera",juan+trc@aplicacionesweb.cl,,,mall-vivo-temuco,,default,0,0,0,open,open,"2021-01-04 15:02:06","LAS QUILAS 1605, LC 1012","ABIERTO DE LUNES A VIERNES","20:00 HORAS"
123,TEMUCO,,,"2021-01-04 15:02:06",sucursal,http://trc.test/index.php/sucursal/temuco/,,,,,,,,Temuco,default,publish,1,"Juan Jorquera",juan+trc@aplicacionesweb.cl,,,temuco,,default,0,0,0,open,open,"2021-01-04 15:02:06","BULNES 498","ABIERTO DE LUNES A VIERNES","20:00 HORAS"
124,"TEMUCO 2",,,"2021-01-04 15:02:06",sucursal,http://trc.test/index.php/sucursal/temuco-2/,,,,,,,,Temuco,default,publish,1,"Juan Jorquera",juan+trc@aplicacionesweb.cl,,,temuco-2,,default,0,0,0,open,open,"2021-01-04 15:02:06","MANUEL MONTT 628","ABIERTO DE LUNES A VIERNES","20:00 HORAS"
125,"TEMUCO 3",,,"2021-01-04 15:02:06",sucursal,http://trc.test/index.php/sucursal/temuco-3/,,,,,,,,Temuco,default,publish,1,"Juan Jorquera",juan+trc@aplicacionesweb.cl,,,temuco-3,,default,0,0,0,open,open,"2021-01-04 15:02:06","DIEGO PORTALES 946","ABIERTO DE LUNES A VIERNES","20:00 HORAS"
126,TOME,,,"2021-01-04 15:02:06",sucursal,http://trc.test/index.php/sucursal/tome/,,,,,,,,Tome,default,publish,1,"Juan Jorquera",juan+trc@aplicacionesweb.cl,,,tome,,default,0,0,0,open,open,"2021-01-04 15:02:06","MANUEL MONTT 1156","ABIERTO DE LUNES A VIERNES","18:30 HORAS"
127,VALDIVIA,,,"2021-01-04 15:02:06",sucursal,http://trc.test/index.php/sucursal/valdivia/,,,,,,,,Valdivia,default,publish,1,"Juan Jorquera",juan+trc@aplicacionesweb.cl,,,valdivia,,default,0,0,0,open,open,"2021-01-04 15:02:06","PICARTE 464","ABIERTO DE LUNES A VIERNES","20:00 HORAS"
128,"VALDIVIA 2",,,"2021-01-04 15:02:06",sucursal,http://trc.test/index.php/sucursal/valdivia-2/,,,,,,,,Valdivia,default,publish,1,"Juan Jorquera",juan+trc@aplicacionesweb.cl,,,valdivia-2,,default,0,0,0,open,open,"2021-01-04 15:02:06","PICARTE 367","ABIERTO DE LUNES A VIERNES","20:00 HORAS"
129,"CONNECT VALLENAR",,,"2021-01-04 15:02:06",sucursal,http://trc.test/index.php/sucursal/connect-vallenar/,,,,,,,,Vallenar,default,publish,1,"Juan Jorquera",juan+trc@aplicacionesweb.cl,,,connect-vallenar,,default,0,0,0,open,open,"2021-01-04 15:02:06","PRAT 900","ABIERTO DE LUNES A DOMINGO","19:00 HORAS"
130,"VALLENAR 1",,,"2021-01-04 15:02:06",sucursal,http://trc.test/index.php/sucursal/vallenar-1/,,,,,,,,Vallenar,default,publish,1,"Juan Jorquera",juan+trc@aplicacionesweb.cl,,,vallenar-1,,default,0,0,0,open,open,"2021-01-04 15:02:06","ARTURO PRAT 1316","ABIERTO DE LUNES A DOMINGO","20:00 HORAS"
131,"VALLENAR 2",,,"2021-01-04 15:02:06",sucursal,http://trc.test/index.php/sucursal/vallenar-2/,,,,,,,,Vallenar,default,publish,1,"Juan Jorquera",juan+trc@aplicacionesweb.cl,,,vallenar-2,,default,0,0,0,open,open,"2021-01-04 15:02:06","ARTURO PRAT 1265","ABIERTO DE LUNES A DOMINGO","20:00 HORAS"
132,"MALL VALPARAISO",,,"2021-01-04 15:02:06",sucursal,http://trc.test/index.php/sucursal/mall-valparaiso/,,,,,,,,Valparaiso,default,publish,1,"Juan Jorquera",juan+trc@aplicacionesweb.cl,,,mall-valparaiso,,default,0,0,0,open,open,"2021-01-04 15:02:06","AV.ARGENTINA 640, LC 201","ABIERTO DE LUNES A VIERNES","20:00 HORAS"
133,"CONNECT VALPARAISO",,,"2021-01-04 15:02:06",sucursal,http://trc.test/index.php/sucursal/connect-valparaiso/,,,,,,,,Valparaiso,default,publish,1,"Juan Jorquera",juan+trc@aplicacionesweb.cl,,,connect-valparaiso,,default,0,0,0,open,open,"2021-01-04 15:02:06","ESMERALDA 1154, LOCAL 4","ABIERTO DE LUNES A VIERNES","19:00 HORAS"
134,"CONNECT VILLA ALEMANA",,,"2021-01-04 15:02:06",sucursal,http://trc.test/index.php/sucursal/connect-villa-alemana/,,,,,,,,"Villa Alemana",default,publish,1,"Juan Jorquera",juan+trc@aplicacionesweb.cl,,,connect-villa-alemana,,default,0,0,0,open,open,"2021-01-04 15:02:06","AV. VALPARAISO 633","ABIERTO DE LUNES A DOMINGO","19:00 HORAS"
135,"VILLA ALEMANA",,,"2021-01-04 15:02:06",sucursal,http://trc.test/index.php/sucursal/villa-alemana/,,,,,,,,"Villa Alemana",default,publish,1,"Juan Jorquera",juan+trc@aplicacionesweb.cl,,,villa-alemana,,default,0,0,0,open,open,"2021-01-04 15:02:06","AV. VALPARAISO 625","ABIERTO DE LUNES A DOMINGO","20:00 HORAS"
136,VILLARRICA,,,"2021-01-04 15:02:06",sucursal,http://trc.test/index.php/sucursal/villarrica/,,,,,,,,Villarrica,default,publish,1,"Juan Jorquera",juan+trc@aplicacionesweb.cl,,,villarrica,,default,0,0,0,open,open,"2021-01-04 15:02:06","PEDRO DE VALDIVIA 845","ABIERTO DE LUNES A VIERNES","20:00 HORAS"
137,"MALL VIÑA DEL MAR",,,"2021-01-04 15:02:06",sucursal,http://trc.test/index.php/sucursal/mall-vina-del-mar/,,,,,,,,"Viña Del Mar",default,publish,1,"Juan Jorquera",juan+trc@aplicacionesweb.cl,,,mall-vina-del-mar,,default,0,0,0,open,open,"2021-01-04 15:02:06","AV. VALPARAISO 1070","ABIERTO DE LUNES A VIERNES","20:00 HORAS"
138,"OUTLET VIÑA DEL MAR",,,"2021-01-04 15:02:08",sucursal,http://trc.test/index.php/sucursal/outlet-vina-del-mar/,,,,,,,,"Viña Del Mar",default,publish,1,"Juan Jorquera",juan+trc@aplicacionesweb.cl,,,outlet-vina-del-mar,,default,0,0,0,open,open,"2021-01-04 15:02:08","CAMINO INTERNACIONAL 2440","ABIERTO DE LUNES A VIERNES","19:00 HORAS"
139,"VINA DEL MAR",,,"2021-01-04 15:02:08",sucursal,http://trc.test/index.php/sucursal/vina-del-mar/,,,,,,,,"Viña Del Mar",default,publish,1,"Juan Jorquera",juan+trc@aplicacionesweb.cl,,,vina-del-mar,,default,0,0,0,open,open,"2021-01-04 15:02:08","VALPARAISO 360","ABIERTO DE LUNES A VIERNES","20:00 HORAS"
140,"VIÑA 15 NORTE",,,"2021-01-04 15:02:08",sucursal,http://trc.test/index.php/sucursal/vina-15-norte/,,,,,,,,"Viña Del Mar",default,publish,1,"Juan Jorquera",juan+trc@aplicacionesweb.cl,,,vina-15-norte,,default,0,0,0,open,open,"2021-01-04 15:02:08","AV. LIBERTAD 1348 LC","ABIERTO DE LUNES A VIERNES","20:00 HORAS"
